Suman Singah,suman@wisitech.com,91-9811684468
Arun,arun@wisitech.com,91-9654056649
Nabil,bokhaity9@gmail.com,966-561060353
Abdulaziz,alsfaai@gmail.com,966-508308080
Abdullah,abdullah_alfoghum@hotmail.com,966-502408080
